(kicad_symbol_lib (version 20210619) (generator bitmap2component)
  (symbol "LOGO" (pin_names (offset 1.016)) (in_bom yes) (on_board yes)
    (property "Reference" "#G" (id 0) (at 0 83.6468 0)
      (effects (font (size 1.27 1.27)) hide)
    )
    (property "Value" "LOGO" (id 1) (at 0 -83.6468 0)
      (effects (font (size 1.27 1.27)) hide)
    )
    (property "Footprint" "" (id 2) (at 0 0 0)
      (effects (font (size 1.27 1.27)) hide)
    )
    (property "Datasheet" "" (id 3) (at 0 0 0)
      (effects (font (size 1.27 1.27)) hide)
    )
    (symbol "LOGO_0_0"
      (polyline
        (pts
          (xy 40.925600 -84.290100)
          (xy 41.573600 -84.128300)
          (xy 42.472300 -83.867600)
          (xy 43.680300 -83.500400)
          (xy 46.251500 -82.649300)
          (xy 49.246400 -81.468900)
          (xy 51.928000 -80.184100)
          (xy 54.282900 -78.802600)
          (xy 56.298200 -77.332500)
          (xy 57.960400 -75.781500)
          (xy 59.256500 -74.157800)
          (xy 60.120100 -72.627700)
          (xy 60.742900 -70.850700)
          (xy 60.983800 -69.042900)
          (xy 60.842600 -67.214000)
          (xy 60.319100 -65.373900)
          (xy 59.413200 -63.532400)
          (xy 58.929600 -62.797600)
          (xy 57.785200 -61.396700)
          (xy 56.371100 -59.988500)
          (xy 54.753900 -58.631400)
          (xy 53.000300 -57.383900)
          (xy 51.176900 -56.304400)
          (xy 50.698600 -56.057200)
          (xy 48.834000 -55.202900)
          (xy 46.831700 -54.432500)
          (xy 44.803100 -53.782700)
          (xy 42.859700 -53.290200)
          (xy 41.113000 -52.991600)
          (xy 40.683200 -52.947100)
          (xy 40.189600 -52.944600)
          (xy 39.853400 -53.055600)
          (xy 39.536500 -53.307700)
          (xy 39.062100 -53.753400)
          (xy 39.062100 -82.518800)
          (xy 40.986400 -82.518800)
          (xy 40.986400 -54.688400)
          (xy 42.755900 -55.072000)
          (xy 43.042700 -55.135700)
          (xy 45.544500 -55.824300)
          (xy 47.943100 -56.716200)
          (xy 50.203300 -57.786500)
          (xy 52.289900 -59.010100)
          (xy 54.167600 -60.362000)
          (xy 55.801300 -61.817000)
          (xy 57.155800 -63.350200)
          (xy 58.195900 -64.936600)
          (xy 58.886300 -66.550900)
          (xy 58.888900 -66.559400)
          (xy 59.212500 -68.209000)
          (xy 59.158900 -69.831100)
          (xy 58.734900 -71.418100)
          (xy 57.947700 -72.962100)
          (xy 56.804300 -74.455200)
          (xy 55.311600 -75.889700)
          (xy 53.476800 -77.257700)
          (xy 51.306800 -78.551500)
          (xy 48.808700 -79.763300)
          (xy 45.989400 -80.885300)
          (xy 45.681300 -80.995400)
          (xy 44.610500 -81.366300)
          (xy 43.509600 -81.733700)
          (xy 42.573900 -82.031900)
          (xy 40.986400 -82.518800)
          (xy 39.062100 -82.518800)
          (xy 39.062100 -83.593800)
          (xy 39.591300 -84.029800)
          (xy 39.675500 -84.098300)
          (xy 39.903500 -84.256900)
          (xy 40.148900 -84.346800)
          (xy 40.470200 -84.360400)
          (xy 40.925600 -84.290100)
        )
        (stroke (width 0.01)) (fill (type outline))
      )
      (polyline
        (pts
          (xy -33.684100 -83.821500)
          (xy -33.541900 -83.560900)
          (xy -33.279100 -82.947500)
          (xy -32.899200 -81.990700)
          (xy -32.405700 -80.699800)
          (xy -31.802100 -79.084200)
          (xy -31.091900 -77.153200)
          (xy -30.278600 -74.916200)
          (xy -29.365700 -72.382400)
          (xy -28.356700 -69.561300)
          (xy -28.138600 -68.949700)
          (xy -27.345500 -66.726200)
          (xy -26.590200 -64.610400)
          (xy -25.882800 -62.630500)
          (xy -25.233600 -60.814800)
          (xy -24.652600 -59.191700)
          (xy -24.150000 -57.789500)
          (xy -23.736000 -56.636600)
          (xy -23.420600 -55.761200)
          (xy -23.214100 -55.191700)
          (xy -23.126600 -54.956400)
          (xy -23.101700 -54.946700)
          (xy -22.994300 -55.101800)
          (xy -22.806400 -55.501700)
          (xy -22.532900 -56.159600)
          (xy -22.168900 -57.088600)
          (xy -21.709400 -58.302100)
          (xy -21.149300 -59.813300)
          (xy -20.483900 -61.635500)
          (xy -19.707900 -63.781700)
          (xy -18.816600 -66.265400)
          (xy -17.804800 -69.099600)
          (xy -17.494800 -69.969500)
          (xy -16.699600 -72.196600)
          (xy -15.943500 -74.309000)
          (xy -15.236200 -76.279200)
          (xy -14.587900 -78.079700)
          (xy -14.008500 -79.682700)
          (xy -13.507900 -81.060900)
          (xy -13.096100 -82.186600)
          (xy -12.783200 -83.032300)
          (xy -12.579000 -83.570400)
          (xy -12.493600 -83.773400)
          (xy -12.372100 -83.827700)
          (xy -11.990100 -83.798200)
          (xy -11.525500 -83.655400)
          (xy -11.133300 -83.453000)
          (xy -10.968200 -83.244700)
          (xy -10.979300 -83.198100)
          (xy -11.093500 -82.841400)
          (xy -11.323600 -82.161400)
          (xy -11.660000 -81.185700)
          (xy -12.093000 -79.942000)
          (xy -12.612800 -78.457700)
          (xy -13.209900 -76.760500)
          (xy -13.874400 -74.878100)
          (xy -14.596800 -72.837900)
          (xy -15.367400 -70.667600)
          (xy -16.176500 -68.394800)
          (xy -16.586100 -67.246400)
          (xy -17.535700 -64.591400)
          (xy -18.369300 -62.272900)
          (xy -19.094300 -60.271500)
          (xy -19.718000 -58.567900)
          (xy -20.247800 -57.142600)
          (xy -20.690900 -55.976200)
          (xy -21.054700 -55.049400)
          (xy -21.346600 -54.342700)
          (xy -21.573800 -53.836700)
          (xy -21.743800 -53.512200)
          (xy -21.863700 -53.349600)
          (xy -21.946700 -53.279100)
          (xy -22.629300 -52.949000)
          (xy -23.354900 -52.944900)
          (xy -24.017300 -53.247200)
          (xy -24.509800 -53.836400)
          (xy -24.562500 -53.960500)
          (xy -24.742200 -54.428900)
          (xy -25.029000 -55.200500)
          (xy -25.411100 -56.242200)
          (xy -25.876500 -57.520500)
          (xy -26.413400 -59.002400)
          (xy -27.009900 -60.654500)
          (xy -27.654000 -62.443500)
          (xy -28.334000 -64.336200)
          (xy -29.037900 -66.299300)
          (xy -29.753800 -68.299600)
          (xy -30.469800 -70.303800)
          (xy -31.174000 -72.278600)
          (xy -31.854600 -74.190800)
          (xy -32.499700 -76.007200)
          (xy -33.097300 -77.694300)
          (xy -33.635600 -79.219100)
          (xy -34.102700 -80.548100)
          (xy -34.486700 -81.648300)
          (xy -34.775700 -82.486200)
          (xy -34.957900 -83.028700)
          (xy -35.021200 -83.242400)
          (xy -34.869600 -83.439500)
          (xy -34.492000 -83.649000)
          (xy -34.061700 -83.784500)
          (xy -33.698100 -83.830500)
          (xy -33.684100 -83.821500)
        )
        (stroke (width 0.01)) (fill (type outline))
      )
      (polyline
        (pts
          (xy 12.061600 -83.876000)
          (xy 12.191900 -83.604900)
          (xy 12.437300 -83.005900)
          (xy 12.787600 -82.106600)
          (xy 13.232700 -80.934300)
          (xy 13.762400 -79.516500)
          (xy 14.366300 -77.880700)
          (xy 15.034400 -76.054200)
          (xy 15.756400 -74.064600)
          (xy 16.522200 -71.939200)
          (xy 17.321400 -69.705700)
          (xy 17.518200 -69.153800)
          (xy 18.312200 -66.927800)
          (xy 19.069100 -64.806200)
          (xy 19.778600 -62.817700)
          (xy 20.430600 -60.990900)
          (xy 21.014800 -59.354600)
          (xy 21.520900 -57.937400)
          (xy 21.938700 -56.768000)
          (xy 22.258000 -55.875100)
          (xy 22.468600 -55.287300)
          (xy 22.560100 -55.033300)
          (xy 22.603600 -54.989400)
          (xy 22.682200 -55.051000)
          (xy 22.801200 -55.247100)
          (xy 22.968400 -55.598500)
          (xy 23.191700 -56.125800)
          (xy 23.479200 -56.850000)
          (xy 23.838600 -57.791800)
          (xy 24.278000 -58.972000)
          (xy 24.805300 -60.411400)
          (xy 25.428300 -62.130700)
          (xy 26.155000 -64.150800)
          (xy 26.993400 -66.492500)
          (xy 27.951300 -69.176500)
          (xy 28.304200 -70.166400)
          (xy 29.098500 -72.393100)
          (xy 29.851200 -74.501700)
          (xy 30.552500 -76.465200)
          (xy 31.192900 -78.256300)
          (xy 31.762400 -79.847900)
          (xy 32.251500 -81.212800)
          (xy 32.650400 -82.323800)
          (xy 32.949300 -83.153900)
          (xy 33.138500 -83.675700)
          (xy 33.208300 -83.862200)
          (xy 33.402100 -83.860800)
          (xy 33.807400 -83.758600)
          (xy 34.277500 -83.602800)
          (xy 34.666700 -83.442000)
          (xy 34.828800 -83.324500)
          (xy 34.813200 -83.271200)
          (xy 34.689700 -82.906100)
          (xy 34.450800 -82.219100)
          (xy 34.106200 -81.237400)
          (xy 33.665500 -79.988200)
          (xy 33.138300 -78.498500)
          (xy 32.534300 -76.795600)
          (xy 31.863000 -74.906500)
          (xy 31.134100 -72.858500)
          (xy 30.357100 -70.678600)
          (xy 29.541700 -68.394000)
          (xy 29.446200 -68.126600)
          (xy 28.399300 -65.203400)
          (xy 27.472500 -62.631200)
          (xy 26.661300 -60.397900)
          (xy 25.961400 -58.491800)
          (xy 25.368100 -56.900700)
          (xy 24.876900 -55.612800)
          (xy 24.483400 -54.616100)
          (xy 24.183100 -53.898600)
          (xy 23.971400 -53.448300)
          (xy 23.843900 -53.253400)
          (xy 23.549900 -53.071800)
          (xy 22.857100 -52.915400)
          (xy 22.145600 -53.019000)
          (xy 21.573900 -53.373900)
          (xy 21.460500 -53.566500)
          (xy 21.208000 -54.131300)
          (xy 20.836000 -55.048300)
          (xy 20.347300 -56.310700)
          (xy 19.744300 -57.911700)
          (xy 19.029700 -59.844400)
          (xy 18.205900 -62.102100)
          (xy 17.275500 -64.678000)
          (xy 16.241100 -67.565200)
          (xy 16.216300 -67.634700)
          (xy 15.421900 -69.859300)
          (xy 14.657900 -71.997700)
          (xy 13.935300 -74.019200)
          (xy 13.265200 -75.893200)
          (xy 12.658400 -77.588800)
          (xy 12.126000 -79.075500)
          (xy 11.678900 -80.322500)
          (xy 11.328300 -81.299100)
          (xy 11.084900 -81.974700)
          (xy 10.959900 -82.318400)
          (xy 10.582000 -83.337700)
          (xy 11.208100 -83.609800)
          (xy 11.265400 -83.634300)
          (xy 11.737800 -83.812400)
          (xy 12.047300 -83.889400)
          (xy 12.061600 -83.876000)
        )
        (stroke (width 0.01)) (fill (type outline))
      )
      (polyline
        (pts
          (xy -39.929400 -83.525000)
          (xy -39.761400 -83.484700)
          (xy -39.616600 -83.413500)
          (xy -39.493300 -83.286100)
          (xy -39.389700 -83.077200)
          (xy -39.304200 -82.761600)
          (xy -39.234900 -82.313900)
          (xy -39.180300 -81.708900)
          (xy -39.138600 -80.921300)
          (xy -39.107900 -79.925800)
          (xy -39.086800 -78.697100)
          (xy -39.073300 -77.210000)
          (xy -39.065800 -75.439200)
          (xy -39.062600 -73.359400)
          (xy -39.061900 -70.945200)
          (xy -39.062100 -68.171500)
          (xy -39.062100 -53.686300)
          (xy -40.791300 -53.686300)
          (xy -40.840700 -67.298700)
          (xy -40.890100 -80.911000)
          (xy -49.645400 -67.404300)
          (xy -50.491400 -66.100700)
          (xy -52.098300 -63.633200)
          (xy -53.550100 -61.416200)
          (xy -54.840600 -59.458900)
          (xy -55.963400 -57.770700)
          (xy -56.912300 -56.361100)
          (xy -57.681000 -55.239500)
          (xy -58.263200 -54.415100)
          (xy -58.652500 -53.897400)
          (xy -58.842800 -53.695800)
          (xy -59.346400 -53.524300)
          (xy -59.836400 -53.584300)
          (xy -60.333700 -53.966200)
          (xy -60.806000 -54.438500)
          (xy -60.806000 -83.512100)
          (xy -59.076800 -83.512100)
          (xy -59.027400 -69.861700)
          (xy -58.978000 -56.211400)
          (xy -50.222700 -69.712300)
          (xy -48.762000 -71.959800)
          (xy -47.328800 -74.154400)
          (xy -46.013000 -76.157800)
          (xy -44.825800 -77.953600)
          (xy -43.778400 -79.524900)
          (xy -42.881900 -80.855100)
          (xy -42.147600 -81.927500)
          (xy -41.586500 -82.725400)
          (xy -41.210000 -83.232200)
          (xy -41.029100 -83.431100)
          (xy -40.668200 -83.543600)
          (xy -40.109600 -83.557100)
          (xy -39.929400 -83.525000)
        )
        (stroke (width 0.01)) (fill (type outline))
      )
      (polyline
        (pts
          (xy 0.577300 -69.514700)
          (xy 1.499500 -69.392400)
          (xy 2.302400 -69.214000)
          (xy 3.545500 -68.732600)
          (xy 4.862000 -68.027200)
          (xy 6.166500 -67.151100)
          (xy 7.373500 -66.157500)
          (xy 8.397500 -65.099500)
          (xy 8.912700 -64.455700)
          (xy 9.972600 -62.938100)
          (xy 10.933200 -61.316100)
          (xy 11.690700 -59.758000)
          (xy 11.708600 -59.715500)
          (xy 12.075200 -58.766500)
          (xy 12.435600 -57.705000)
          (xy 12.763000 -56.624900)
          (xy 13.030200 -55.620600)
          (xy 13.210500 -54.786000)
          (xy 13.276800 -54.215500)
          (xy 13.243200 -53.881900)
          (xy 13.057300 -53.720100)
          (xy 12.603800 -53.686300)
          (xy 12.538700 -53.686100)
          (xy 12.062900 -53.670600)
          (xy 11.794700 -53.638200)
          (xy 11.692100 -53.784900)
          (xy 11.553000 -54.217000)
          (xy 11.407600 -54.840900)
          (xy 10.848100 -57.014400)
          (xy 10.010400 -59.230600)
          (xy 8.956000 -61.283200)
          (xy 7.714000 -63.129200)
          (xy 6.313400 -64.725700)
          (xy 4.783500 -66.029700)
          (xy 3.153300 -66.998500)
          (xy 2.561800 -67.253200)
          (xy 0.918400 -67.709400)
          (xy -0.695200 -67.791400)
          (xy -2.269300 -67.506600)
          (xy -3.793900 -66.862600)
          (xy -5.259200 -65.867000)
          (xy -6.655400 -64.527300)
          (xy -7.972600 -62.851100)
          (xy -9.201000 -60.845800)
          (xy -10.330800 -58.519000)
          (xy -11.352100 -55.878300)
          (xy -11.378800 -55.801100)
          (xy -11.679400 -54.941300)
          (xy -11.935000 -54.229700)
          (xy -12.119200 -53.738300)
          (xy -12.205800 -53.539100)
          (xy -12.206600 -53.538400)
          (xy -12.408600 -53.550800)
          (xy -12.821100 -53.641200)
          (xy -13.297400 -53.769900)
          (xy -13.690800 -53.897400)
          (xy -13.854500 -53.984000)
          (xy -13.853800 -53.988000)
          (xy -13.783400 -54.210400)
          (xy -13.614000 -54.718800)
          (xy -13.369500 -55.442400)
          (xy -13.073500 -56.310800)
          (xy -12.258200 -58.460500)
          (xy -11.259500 -60.640200)
          (xy -10.160600 -62.645000)
          (xy -8.993000 -64.422800)
          (xy -7.788300 -65.921100)
          (xy -6.577900 -67.087700)
          (xy -6.128800 -67.431900)
          (xy -5.082800 -68.109600)
          (xy -3.967200 -68.699600)
          (xy -2.898700 -69.143600)
          (xy -1.994100 -69.382900)
          (xy -1.154500 -69.508800)
          (xy -1.154500 -83.704500)
          (xy 0.577300 -83.704500)
          (xy 0.577300 -69.514700)
        )
        (stroke (width 0.01)) (fill (type outline))
      )
      (polyline
        (pts
          (xy -12.747200 -36.009500)
          (xy -12.358300 -35.073700)
          (xy -35.379800 -12.052700)
          (xy -35.647300 -11.785300)
          (xy -38.123200 -9.310700)
          (xy -40.525200 -6.912100)
          (xy -42.839100 -4.603700)
          (xy -45.050700 -2.399300)
          (xy -47.145900 -0.313000)
          (xy -49.110600 1.641100)
          (xy -50.930700 3.449000)
          (xy -52.592000 5.096800)
          (xy -54.080300 6.570400)
          (xy -55.381500 7.855700)
          (xy -56.481600 8.938800)
          (xy -57.366300 9.805700)
          (xy -58.021500 10.442200)
          (xy -58.433200 10.834400)
          (xy -58.587000 10.968200)
          (xy -58.673100 10.955400)
          (xy -59.062000 10.843300)
          (xy -59.597000 10.653400)
          (xy -60.421200 10.338700)
          (xy -60.421200 -7.463200)
          (xy -60.420400 -10.221900)
          (xy -60.417200 -12.639500)
          (xy -60.410100 -14.743500)
          (xy -60.397500 -16.561200)
          (xy -60.377800 -18.119700)
          (xy -60.349500 -19.446500)
          (xy -60.310800 -20.568900)
          (xy -60.260300 -21.514200)
          (xy -60.196400 -22.309700)
          (xy -60.117400 -22.982600)
          (xy -60.021800 -23.560400)
          (xy -59.908100 -24.070300)
          (xy -59.774500 -24.539600)
          (xy -59.619600 -24.995600)
          (xy -59.441700 -25.465800)
          (xy -59.239300 -25.977200)
          (xy -58.304200 -27.942500)
          (xy -56.935200 -30.027600)
          (xy -55.286300 -31.901100)
          (xy -53.396000 -33.530500)
          (xy -51.302900 -34.883000)
          (xy -49.045700 -35.926000)
          (xy -46.662900 -36.626800)
          (xy -46.397400 -36.674700)
          (xy -46.023700 -36.721400)
          (xy -45.541600 -36.762100)
          (xy -44.925900 -36.797100)
          (xy -44.151400 -36.826800)
          (xy -43.193000 -36.851800)
          (xy -42.025700 -36.872500)
          (xy -40.624200 -36.889300)
          (xy -38.963500 -36.902600)
          (xy -37.018500 -36.912800)
          (xy -34.764000 -36.920500)
          (xy -32.174900 -36.926000)
          (xy -29.226000 -36.929700)
          (xy -13.136100 -36.945400)
          (xy -12.747200 -36.009500)
        )
        (stroke (width 0.01)) (fill (type outline))
      )
      (polyline
        (pts
          (xy 43.054200 -36.913200)
          (xy 44.935300 -36.827000)
          (xy 46.559100 -36.659400)
          (xy 47.988700 -36.395500)
          (xy 49.287500 -36.020400)
          (xy 50.518600 -35.519000)
          (xy 51.745200 -34.876500)
          (xy 53.030700 -34.077900)
          (xy 53.136700 -34.007400)
          (xy 55.187500 -32.412500)
          (xy 56.938600 -30.577200)
          (xy 58.385500 -28.507900)
          (xy 59.523400 -26.211200)
          (xy 60.347700 -23.693800)
          (xy 60.470600 -23.192000)
          (xy 60.585900 -22.645200)
          (xy 60.671400 -22.094100)
          (xy 60.731500 -21.475200)
          (xy 60.770700 -20.725100)
          (xy 60.793300 -19.780500)
          (xy 60.803600 -18.577900)
          (xy 60.806100 -17.053900)
          (xy 60.806100 -12.220700)
          (xy 12.754900 35.831900)
          (xy 9.809200 38.777100)
          (xy 6.259700 42.324400)
          (xy 2.785600 45.794800)
          (xy -0.603200 49.178200)
          (xy -3.897000 52.465100)
          (xy -7.085800 55.645600)
          (xy -10.159900 58.710000)
          (xy -13.109400 61.648500)
          (xy -15.924600 64.451400)
          (xy -18.595600 67.108800)
          (xy -21.112500 69.611100)
          (xy -23.465500 71.948500)
          (xy -25.644900 74.111100)
          (xy -27.640800 76.089300)
          (xy -29.443300 77.873200)
          (xy -31.042700 79.453200)
          (xy -32.429100 80.819400)
          (xy -33.592700 81.962100)
          (xy -34.523700 82.871600)
          (xy -35.212200 83.537900)
          (xy -35.648400 83.951500)
          (xy -35.822600 84.102500)
          (xy -35.860300 84.116300)
          (xy -36.269800 84.187800)
          (xy -36.992500 84.235100)
          (xy -38.046100 84.258600)
          (xy -39.448400 84.258900)
          (xy -41.217200 84.236300)
          (xy -41.497000 84.231400)
          (xy -42.952300 84.203500)
          (xy -44.094400 84.173400)
          (xy -44.984700 84.135300)
          (xy -45.684700 84.083800)
          (xy -46.255600 84.013100)
          (xy -46.758900 83.917500)
          (xy -47.255900 83.791500)
          (xy -47.807900 83.629300)
          (xy -49.404200 83.070600)
          (xy -51.750800 81.937300)
          (xy -53.853900 80.510900)
          (xy -55.702800 78.800500)
          (xy -57.286600 76.815300)
          (xy -58.594400 74.564400)
          (xy -58.825200 74.091200)
          (xy -59.242800 73.205700)
          (xy -59.572600 72.429400)
          (xy -59.825900 71.700400)
          (xy -60.013800 70.957100)
          (xy -60.147800 70.137800)
          (xy -60.239100 69.180500)
          (xy -60.299100 68.023700)
          (xy -60.339000 66.605500)
          (xy -60.370200 64.864300)
          (xy -60.453900 59.589900)
          (xy -12.379600 11.499200)
          (xy -9.391900 8.510900)
          (xy -5.844400 4.963800)
          (xy -2.373200 1.494200)
          (xy 1.012000 -1.888300)
          (xy 4.301400 -5.173800)
          (xy 7.485100 -8.352600)
          (xy 10.553500 -11.415100)
          (xy 13.496800 -14.351400)
          (xy 16.305000 -17.151700)
          (xy 18.968600 -19.806500)
          (xy 21.477600 -22.305800)
          (xy 23.822300 -24.640000)
          (xy 25.992900 -26.799400)
          (xy 27.979600 -28.774100)
          (xy 29.772700 -30.554500)
          (xy 31.362300 -32.130700)
          (xy 32.738700 -33.493100)
          (xy 33.892000 -34.631900)
          (xy 34.812600 -35.537400)
          (xy 35.490500 -36.199800)
          (xy 35.916100 -36.609300)
          (xy 36.079600 -36.756300)
          (xy 36.200200 -36.783000)
          (xy 36.684500 -36.828400)
          (xy 37.460900 -36.868300)
          (xy 38.469800 -36.900500)
          (xy 39.651500 -36.922900)
          (xy 40.946400 -36.933200)
          (xy 43.054200 -36.913200)
        )
        (stroke (width 0.01)) (fill (type outline))
      )
      (polyline
        (pts
          (xy 59.870200 36.607900)
          (xy 60.806100 36.996800)
          (xy 60.806100 52.950500)
          (xy 60.806000 54.800000)
          (xy 60.805200 57.558600)
          (xy 60.802100 59.976200)
          (xy 60.795000 62.080200)
          (xy 60.782400 63.897800)
          (xy 60.762700 65.456300)
          (xy 60.734300 66.783100)
          (xy 60.695700 67.905500)
          (xy 60.645200 68.850700)
          (xy 60.581200 69.646100)
          (xy 60.502300 70.319100)
          (xy 60.406700 70.896800)
          (xy 60.292900 71.406700)
          (xy 60.159400 71.876000)
          (xy 60.004500 72.332100)
          (xy 59.826600 72.802200)
          (xy 59.624200 73.313700)
          (xy 59.431900 73.777000)
          (xy 58.266300 76.003400)
          (xy 56.799100 78.025600)
          (xy 55.066000 79.815400)
          (xy 53.102200 81.344200)
          (xy 50.943300 82.583800)
          (xy 48.624700 83.505800)
          (xy 46.181800 84.081600)
          (xy 46.071600 84.095100)
          (xy 45.501800 84.131700)
          (xy 44.569000 84.164700)
          (xy 43.289700 84.193900)
          (xy 41.680200 84.219200)
          (xy 39.756600 84.240400)
          (xy 37.535400 84.257200)
          (xy 35.032700 84.269400)
          (xy 32.265000 84.277000)
          (xy 29.248500 84.279700)
          (xy 13.565900 84.280400)
          (xy 13.229200 83.461300)
          (xy 13.133400 83.220500)
          (xy 12.960800 82.732900)
          (xy 12.892400 82.452100)
          (xy 12.894000 82.448400)
          (xy 13.056000 82.265900)
          (xy 13.474800 81.827300)
          (xy 14.136500 81.146500)
          (xy 15.027000 80.237800)
          (xy 16.132300 79.115200)
          (xy 17.438400 77.793000)
          (xy 18.931200 76.285200)
          (xy 20.596700 74.606000)
          (xy 22.420900 72.769600)
          (xy 24.389800 70.790100)
          (xy 26.489300 68.681600)
          (xy 28.705400 66.458200)
          (xy 31.024200 64.134100)
          (xy 33.431500 61.723500)
          (xy 35.913400 59.240500)
          (xy 58.934300 36.218900)
          (xy 59.870200 36.607900)
        )
        (stroke (width 0.01)) (fill (type outline))
      )
    )
  )
)
