(footprint "LOGO" (version 20210606) (generator bitmap2component) (layer "F.Cu")
  (at 0 0)
(attr board_only exclude_from_pos_files exclude_from_bom)
 (fp_text reference "G***" (at 0 0) (layer F.SilkS)
  (effects (font (thickness 0.3)))
  )
  (fp_text value "LOGO" (at 0.75 0) (layer F.SilkS) hide
  (effects (font (thickness 0.3)))
  )
  (fp_poly (pts (xy -2.333028 2.004969) (xy -2.257318 2.017585) (xy -2.141094 2.044758) (xy -2.080540 2.072987) (xy -2.057667 2.115791) (xy -2.054411 2.170078) (xy -2.057964 2.243398) (xy -2.082623 2.260420)
     (xy -2.149390 2.231319) (xy -2.164615 2.223459) (xy -2.291337 2.180756) (xy -2.432404 2.166800) (xy -2.561165 2.181139) (xy -2.650965 2.223322) (xy -2.659268 2.231838) (xy -2.735953 2.350505)
     (xy -2.744042 2.451270) (xy -2.681936 2.537088) (xy -2.548036 2.610913) (xy -2.432606 2.650669) (xy -2.220594 2.733854) (xy -2.077314 2.838421) (xy -1.998894 2.968163) (xy -1.980256 3.093822)
     (xy -1.993669 3.214782) (xy -2.025409 3.320161) (xy -2.027467 3.324412) (xy -2.119796 3.430636) (xy -2.264578 3.504047) (xy -2.445377 3.540724) (xy -2.645753 3.536748) (xy -2.792132 3.506740)
     (xy -2.877166 3.470816) (xy -2.909843 3.413655) (xy -2.913529 3.359737) (xy -2.909243 3.283959) (xy -2.881949 3.268233) (xy -2.810808 3.299441) (xy -2.640448 3.360757) (xy -2.480814 3.375344)
     (xy -2.343156 3.348593) (xy -2.238727 3.285896) (xy -2.178779 3.192643) (xy -2.174562 3.074225) (xy -2.197611 3.005628) (xy -2.251093 2.940680) (xy -2.354543 2.886994) (xy -2.454484 2.854295)
     (xy -2.640611 2.795315) (xy -2.767170 2.739153) (xy -2.848335 2.676671) (xy -2.898283 2.598728) (xy -2.913683 2.558210) (xy -2.932434 2.388533) (xy -2.883359 2.222329) (xy -2.813748 2.122047)
     (xy -2.694811 2.042124) (xy -2.528588 2.001974) )(layer F.SilkS) (width  0.000000)
  )
  (fp_poly (pts (xy -1.061897 2.025067) (xy -0.924702 2.121376) (xy -0.819462 2.277454) (xy -0.784644 2.366744) (xy -0.756004 2.514351) (xy -0.746291 2.699819) (xy -0.753895 2.899562) (xy -0.777209 3.089993)
     (xy -0.814625 3.247528) (xy -0.850240 3.328725) (xy -0.970707 3.462680) (xy -1.120835 3.536057) (xy -1.285366 3.544201) (xy -1.415811 3.501287) (xy -1.539699 3.402747) (xy -1.628521 3.248992)
     (xy -1.684569 3.044265) (xy -1.709843 2.796332) (xy -1.707446 2.755979) (xy -1.494059 2.755979) (xy -1.479266 3.011723) (xy -1.435030 3.201608) (xy -1.361730 3.324328) (xy -1.320191 3.356814)
     (xy -1.237362 3.393686) (xy -1.166968 3.384298) (xy -1.123255 3.363192) (xy -1.039329 3.276213) (xy -0.983460 3.120341) (xy -0.955758 2.895969) (xy -0.952500 2.764118) (xy -0.964780 2.517168)
     (xy -1.002085 2.338700) (xy -1.065111 2.226557) (xy -1.141038 2.181364) (xy -1.273066 2.173479) (xy -1.372906 2.226021) (xy -1.442030 2.341387) (xy -1.481914 2.521976) (xy -1.494059 2.755979)
     (xy -1.707446 2.755979) (xy -1.695887 2.561396) (xy -1.646412 2.352487) (xy -1.565127 2.182633) (xy -1.455741 2.064867) (xy -1.396239 2.031449) (xy -1.222069 1.993451) )(layer F.SilkS) (width  0.000000)
  )
  (fp_poly (pts (xy 0.163234 2.017628) (xy 0.296552 2.098495) (xy 0.401070 2.231733) (xy 0.447545 2.348508) (xy 0.475594 2.508051) (xy 0.486371 2.703181) (xy 0.480828 2.908307) (xy 0.459920 3.097839)
     (xy 0.424601 3.246186) (xy 0.412998 3.275243) (xy 0.309907 3.425508) (xy 0.171643 3.517216) (xy 0.012247 3.545798) (xy -0.154241 3.506686) (xy -0.209129 3.477669) (xy -0.318980 3.377539)
     (xy -0.394512 3.228428) (xy -0.438014 3.023515) (xy -0.445435 2.879254) (xy -0.258690 2.879254) (xy -0.244569 3.045443) (xy -0.202837 3.188535) (xy -0.131548 3.306846) (xy -0.044373 3.382009)
     (xy 0.018677 3.399118) (xy 0.084675 3.374267) (xy 0.163076 3.314093) (xy 0.166795 3.310425) (xy 0.231610 3.202732) (xy 0.275103 3.043729) (xy 0.296418 2.853952) (xy 0.294701 2.653939)
     (xy 0.269099 2.464226) (xy 0.218757 2.305351) (xy 0.209398 2.286180) (xy 0.152416 2.202400) (xy 0.079521 2.170027) (xy 0.018579 2.166471) (xy -0.091765 2.185267) (xy -0.166214 2.252034)
     (xy -0.172299 2.261037) (xy -0.211478 2.360988) (xy -0.240331 2.512480) (xy -0.256766 2.692805) (xy -0.258690 2.879254) (xy -0.445435 2.879254) (xy -0.451776 2.755975) (xy -0.451774 2.754499)
     (xy -0.447094 2.568256) (xy -0.431091 2.431932) (xy -0.399777 2.321103) (xy -0.369699 2.251942) (xy -0.265350 2.106289) (xy -0.132134 2.019822) (xy 0.015533 1.990836) )(layer F.SilkS) (width  0.000000)
  )
  (fp_poly (pts (xy 1.348528 1.998247) (xy 1.498456 2.068614) (xy 1.616570 2.200997) (xy 1.651679 2.267930) (xy 1.709608 2.455529) (xy 1.735290 2.671041) (xy 1.730645 2.895480) (xy 1.697593 3.109858)
     (xy 1.638054 3.295189) (xy 1.553947 3.432487) (xy 1.531644 3.454990) (xy 1.425272 3.510378) (xy 1.282705 3.534992) (xy 1.136889 3.526354) (xy 1.037014 3.492167) (xy 0.936329 3.411713)
     (xy 0.865263 3.294517) (xy 0.819467 3.129225) (xy 0.795156 2.909634) (xy 0.981246 2.909634) (xy 1.014660 3.116355) (xy 1.079968 3.272435) (xy 1.122559 3.326382) (xy 1.214077 3.389178)
     (xy 1.303266 3.382770) (xy 1.399958 3.309909) (xy 1.469084 3.213396) (xy 1.511364 3.082318) (xy 1.529111 2.904405) (xy 1.524635 2.667388) (xy 1.523802 2.652592) (xy 1.499814 2.436306)
     (xy 1.455124 2.287022) (xy 1.386939 2.199216) (xy 1.292470 2.167364) (xy 1.278478 2.167042) (xy 1.166721 2.185934) (xy 1.085802 2.247011) (xy 1.030501 2.359048) (xy 0.995600 2.530819)
     (xy 0.982384 2.664805) (xy 0.981246 2.909634) (xy 0.795156 2.909634) (xy 0.794586 2.904482) (xy 0.791781 2.852332) (xy 0.797240 2.558169) (xy 0.843480 2.323755) (xy 0.930027 2.150148)
     (xy 1.056403 2.038407) (xy 1.177123 1.995823) )(layer F.SilkS) (width  0.000000)
  )
  (fp_poly (pts (xy 2.562796 2.006745) (xy 2.726709 2.062823) (xy 2.843085 2.163798) (xy 2.905069 2.306611) (xy 2.913530 2.395626) (xy 2.891917 2.516029) (xy 2.836871 2.618653) (xy 2.763082 2.680712)
     (xy 2.724106 2.689412) (xy 2.725073 2.711706) (xy 2.771102 2.768794) (xy 2.817488 2.815219) (xy 2.902088 2.906252) (xy 2.941183 2.990113) (xy 2.950878 3.101879) (xy 2.950883 3.105732)
     (xy 2.936714 3.232259) (xy 2.901173 3.338700) (xy 2.889972 3.357399) (xy 2.777289 3.457542) (xy 2.615185 3.521205) (xy 2.421270 3.544889) (xy 2.213153 3.525093) (xy 2.138456 3.506740)
     (xy 2.051707 3.468708) (xy 2.019335 3.409662) (xy 2.017059 3.375377) (xy 2.026570 3.308254) (xy 2.064104 3.300335) (xy 2.082427 3.307217) (xy 2.153782 3.325115) (xy 2.271014 3.342392)
     (xy 2.375409 3.352546) (xy 2.503991 3.359512) (xy 2.582512 3.351548) (xy 2.635160 3.321964) (xy 2.683571 3.267324) (xy 2.749225 3.136089) (xy 2.748476 3.009722) (xy 2.689046 2.902389)
     (xy 2.578658 2.828257) (xy 2.429639 2.801471) (xy 2.332683 2.796507) (xy 2.289310 2.773001) (xy 2.278611 2.718030) (xy 2.278530 2.708088) (xy 2.285830 2.649717) (xy 2.321275 2.622562)
     (xy 2.405179 2.614934) (xy 2.440829 2.614706) (xy 2.585155 2.589899) (xy 2.682948 2.524313) (xy 2.726949 2.431201) (xy 2.709896 2.323815) (xy 2.647788 2.236905) (xy 2.585628 2.189309)
     (xy 2.508861 2.170729) (xy 2.389434 2.174857) (xy 2.376979 2.176000) (xy 2.252835 2.191731) (xy 2.152315 2.211469) (xy 2.119780 2.221620) (xy 2.071182 2.227752) (xy 2.054988 2.178409)
     (xy 2.054412 2.154308) (xy 2.078683 2.069955) (xy 2.119780 2.041514) (xy 2.358201 1.998623) )(layer F.SilkS) (width  0.000000)
  )
  (fp_poly (pts (xy -3.249705 2.110441) (xy -3.252382 2.154647) (xy -3.269997 2.182094) (xy -3.316925 2.196776) (xy -3.407542 2.202687) (xy -3.556224 2.203819) (xy -3.585882 2.203823) (xy -3.922058 2.203823)
     (xy -3.922058 2.611797) (xy -3.595220 2.622590) (xy -3.438032 2.629074) (xy -3.340480 2.638654) (xy -3.287501 2.655548) (xy -3.264034 2.683971) (xy -3.256446 2.717426) (xy -3.254218 2.757089)
     (xy -3.270451 2.781781) (xy -3.318925 2.795046) (xy -3.413423 2.800427) (xy -3.567726 2.801469) (xy -3.583284 2.801471) (xy -3.922058 2.801471) (xy -3.922058 3.361765) (xy -3.567205 3.361765)
     (xy -3.402278 3.362893) (xy -3.298187 3.368222) (xy -3.241075 3.380670) (xy -3.217086 3.403153) (xy -3.212352 3.436471) (xy -3.216750 3.468006) (xy -3.238197 3.489154) (xy -3.289072 3.501979)
     (xy -3.381755 3.508544) (xy -3.528627 3.510911) (xy -3.660588 3.511176) (xy -4.108823 3.511176) (xy -4.108823 2.017059) (xy -3.249705 2.017059) )(layer F.SilkS) (width  0.000000)
  )
  (fp_poly (pts (xy 3.876297 2.027285) (xy 4.019327 2.107135) (xy 4.117241 2.229529) (xy 4.159102 2.387773) (xy 4.159709 2.426496) (xy 4.147460 2.521632) (xy 4.110964 2.618555) (xy 4.042878 2.728674)
     (xy 3.935863 2.863397) (xy 3.782579 3.034135) (xy 3.738203 3.081618) (xy 3.492500 3.343088) (xy 3.838015 3.353828) (xy 4.000700 3.360236) (xy 4.102628 3.369431) (xy 4.157748 3.384805)
     (xy 4.180007 3.409751) (xy 4.183530 3.437872) (xy 4.178830 3.468832) (xy 4.156489 3.489596) (xy 4.104147 3.502187) (xy 4.009443 3.508626) (xy 3.860017 3.510933) (xy 3.735295 3.511176)
     (xy 3.287059 3.511176) (xy 3.287059 3.419371) (xy 3.313145 3.342513) (xy 3.392962 3.226942) (xy 3.528854 3.069377) (xy 3.564091 3.031335) (xy 3.685172 2.897166) (xy 3.791802 2.770473)
     (xy 3.870006 2.668325) (xy 3.900267 2.620731) (xy 3.953692 2.461793) (xy 3.943576 2.330319) (xy 3.878355 2.233758) (xy 3.766463 2.179560) (xy 3.616334 2.175174) (xy 3.449386 2.222500)
     (xy 3.348567 2.263150) (xy 3.300342 2.270889) (xy 3.288010 2.240716) (xy 3.293916 2.175944) (xy 3.310625 2.112580) (xy 3.355325 2.070828) (xy 3.447176 2.036278) (xy 3.498635 2.021985)
     (xy 3.699087 1.996671) )(layer F.SilkS) (width  0.000000)
  )
  (fp_poly (pts (xy 4.519706 1.157941) (xy -4.482352 1.157941) (xy -4.482352 -3.025588) (xy 2.913530 -3.025588) (xy 2.913530 -2.652059) (xy -4.108823 -2.652059) (xy -4.108823 0.784412) (xy 4.145492 0.784412)
     (xy 4.155173 -1.111250) (xy 4.164853 -3.006912) (xy 4.342280 -3.018297) (xy 4.519706 -3.029682) )(layer F.SilkS) (width  0.000000)
  )
  (fp_poly (pts (xy -2.616527 -1.970919) (xy -2.442198 -1.908874) (xy -2.397506 -1.880531) (xy -2.277217 -1.751346) (xy -2.181699 -1.563337) (xy -2.113989 -1.329157) (xy -2.077125 -1.061458) (xy -2.074145 -0.772891)
     (xy -2.089517 -0.597926) (xy -2.148030 -0.308408) (xy -2.243164 -0.083431) (xy -2.375470 0.077888) (xy -2.545500 0.176429) (xy -2.580463 0.187657) (xy -2.790564 0.219319) (xy -2.999562 0.186340)
     (xy -3.002455 0.185479) (xy -3.170676 0.096884) (xy -3.305566 -0.056879) (xy -3.405682 -0.273421) (xy -3.469577 -0.550352) (xy -3.476070 -0.597926) (xy -3.494450 -0.891430) (xy -3.490151 -0.962463)
     (xy -3.179023 -0.962463) (xy -3.178085 -0.758747) (xy -3.170312 -0.569779) (xy -3.155712 -0.417227) (xy -3.140225 -0.339534) (xy -3.063344 -0.174643) (xy -2.950024 -0.074468) (xy -2.798612 -0.037612)
     (xy -2.782794 -0.037353) (xy -2.651231 -0.054377) (xy -2.557135 -0.113025) (xy -2.545619 -0.124754) (xy -2.476194 -0.224392) (xy -2.425521 -0.339534) (xy -2.406356 -0.448537) (xy -2.393813 -0.610490)
     (xy -2.387883 -0.803930) (xy -2.388559 -1.007394) (xy -2.395831 -1.199420) (xy -2.409690 -1.358546) (xy -2.425968 -1.449438) (xy -2.498044 -1.604554) (xy -2.605933 -1.705132) (xy -2.734485 -1.751258)
     (xy -2.868551 -1.743015) (xy -2.992980 -1.680490) (xy -3.092622 -1.563768) (xy -3.140725 -1.445424) (xy -3.160353 -1.327470) (xy -3.173116 -1.159260) (xy -3.179023 -0.962463) (xy -3.490151 -0.962463)
     (xy -3.477467 -1.172053) (xy -3.428168 -1.427050) (xy -3.349600 -1.643675) (xy -3.244811 -1.809185) (xy -3.169702 -1.879321) (xy -3.007406 -1.956099) (xy -2.813972 -1.986646) )(layer F.SilkS) (width  0.000000)
  )
  (fp_poly (pts (xy -0.770085 -1.969958) (xy -0.639771 -1.943498) (xy -0.528515 -1.914245) (xy -0.471710 -1.883648) (xy -0.451051 -1.833394) (xy -0.448235 -1.751863) (xy -0.451177 -1.659633) (xy -0.458503 -1.609315)
     (xy -0.461172 -1.606177) (xy -0.499575 -1.621278) (xy -0.578498 -1.658705) (xy -0.601246 -1.670026) (xy -0.709601 -1.707631) (xy -0.854931 -1.737282) (xy -0.960448 -1.748995) (xy -1.091722 -1.754603)
     (xy -1.175410 -1.744990) (xy -1.238246 -1.712547) (xy -1.305963 -1.650666) (xy -1.390386 -1.540631) (xy -1.419021 -1.423789) (xy -1.419411 -1.405064) (xy -1.399103 -1.287626) (xy -1.332058 -1.197356)
     (xy -1.209092 -1.126582) (xy -1.021024 -1.067634) (xy -1.013180 -1.065699) (xy -0.753789 -0.985153) (xy -0.562405 -0.884487) (xy -0.433769 -0.758169) (xy -0.362620 -0.600668) (xy -0.343699 -0.406452)
     (xy -0.345655 -0.363689) (xy -0.380641 -0.163714) (xy -0.461287 -0.014765) (xy -0.596131 0.096962) (xy -0.647952 0.125048) (xy -0.821367 0.181766) (xy -1.033820 0.207520) (xy -1.255507 0.200364)
     (xy -1.402069 0.174265) (xy -1.543496 0.134692) (xy -1.626867 0.096313) (xy -1.667354 0.045543) (xy -1.680130 -0.031203) (xy -1.680882 -0.075369) (xy -1.680882 -0.221035) (xy -1.494152 -0.127246)
     (xy -1.335058 -0.069170) (xy -1.154142 -0.036357) (xy -0.977653 -0.030832) (xy -0.831843 -0.054617) (xy -0.787957 -0.072808) (xy -0.689623 -0.163366) (xy -0.626397 -0.296125) (xy -0.610808 -0.442075)
     (xy -0.615044 -0.473231) (xy -0.671302 -0.595949) (xy -0.791047 -0.692003) (xy -0.977759 -0.763813) (xy -1.062624 -0.784320) (xy -1.319837 -0.862778) (xy -1.512950 -0.973673) (xy -1.640449 -1.115188)
     (xy -1.700821 -1.285504) (xy -1.692552 -1.482803) (xy -1.681818 -1.527994) (xy -1.595719 -1.720496) (xy -1.457203 -1.862655) (xy -1.270564 -1.952759) (xy -1.040093 -1.989097) )(layer F.SilkS) (width  0.000000)
  )
  (fp_poly (pts (xy 1.419412 0.191274) (xy 1.279339 0.179681) (xy 1.139265 0.168088) (xy 1.128864 -0.346810) (xy 1.118464 -0.861708) (xy 0.736659 -0.851074) (xy 0.354853 -0.840441) (xy 0.334069 0.186765)
     (xy 0.203215 0.186765) (xy 0.111043 0.174580) (xy 0.057020 0.144728) (xy 0.054241 0.139543) (xy 0.049835 0.091026) (xy 0.046533 -0.022059) (xy 0.044413 -0.189581) (xy 0.043551 -0.401409)
     (xy 0.044026 -0.647411) (xy 0.045914 -0.917459) (xy 0.046075 -0.934354) (xy 0.056030 -1.961029) (xy 0.196103 -1.972623) (xy 0.336177 -1.984216) (xy 0.336177 -1.083235) (xy 1.118218 -1.083235)
     (xy 1.128742 -1.522132) (xy 1.139265 -1.961029) (xy 1.279339 -1.972623) (xy 1.419412 -1.984216) )(layer F.SilkS) (width  0.000000)
  )
  (fp_poly (pts (xy 3.730659 -3.542663) (xy 3.741964 -3.541669) (xy 3.868186 -3.529853) (xy 3.468249 -1.699559) (xy 3.389889 -1.340601) (xy 3.316505 -1.003758) (xy 3.249620 -0.696082) (xy 3.190762 -0.424622)
     (xy 3.141456 -0.196429) (xy 3.103227 -0.018553) (xy 3.077602 0.101955) (xy 3.066105 0.158045) (xy 3.065627 0.161005) (xy 3.031010 0.177790) (xy 2.948665 0.181230) (xy 2.924710 0.179681)
     (xy 2.786478 0.168088) (xy 2.655626 -0.420221) (xy 2.610256 -0.618246) (xy 2.568871 -0.787852) (xy 2.534648 -0.916854) (xy 2.510766 -0.993066) (xy 2.502188 -1.008529) (xy 2.486154 -0.974250)
     (xy 2.458278 -0.880453) (xy 2.422224 -0.740697) (xy 2.381657 -0.568545) (xy 2.373677 -0.533007) (xy 2.318930 -0.287209) (xy 2.277081 -0.104775) (xy 2.244196 0.023716) (xy 2.216341 0.107686)
     (xy 2.189578 0.156556) (xy 2.159975 0.179746) (xy 2.123594 0.186677) (xy 2.076502 0.186771) (xy 2.073026 0.186765) (xy 1.984566 0.178481) (xy 1.943107 0.138809) (xy 1.924817 0.065368)
     (xy 1.902183 -0.072025) (xy 1.873668 -0.254315) (xy 1.841041 -0.469229) (xy 1.806070 -0.704495) (xy 1.770522 -0.947842) (xy 1.736165 -1.186996) (xy 1.704767 -1.409685) (xy 1.678097 -1.603637)
     (xy 1.657921 -1.756581) (xy 1.646009 -1.856243) (xy 1.643530 -1.887244) (xy 1.653462 -1.949805) (xy 1.697874 -1.975410) (xy 1.774265 -1.979706) (xy 1.860766 -1.972662) (xy 1.904050 -1.955343)
     (xy 1.905188 -1.951691) (xy 1.909541 -1.907733) (xy 1.921586 -1.801079) (xy 1.939986 -1.643193) (xy 1.963401 -1.445539) (xy 1.990492 -1.219577) (xy 1.997931 -1.157941) (xy 2.025871 -0.924563)
     (xy 2.050490 -0.714668) (xy 2.070428 -0.540205) (xy 2.084325 -0.413127) (xy 2.090820 -0.345385) (xy 2.091126 -0.339289) (xy 2.096668 -0.296796) (xy 2.112039 -0.317835) (xy 2.138015 -0.404972)
     (xy 2.175370 -0.560773) (xy 2.220454 -0.766956) (xy 2.259134 -0.948111) (xy 2.293717 -1.108941) (xy 2.320377 -1.231730) (xy 2.335116 -1.298015) (xy 2.361786 -1.354217) (xy 2.421861 -1.378149)
     (xy 2.500365 -1.382059) (xy 2.646071 -1.382059) (xy 2.702338 -1.129927) (xy 2.738911 -0.963888) (xy 2.781772 -0.766166) (xy 2.821938 -0.578207) (xy 2.823728 -0.569744) (xy 2.854366 -0.431543)
     (xy 2.880017 -0.328149) (xy 2.896565 -0.275684) (xy 2.899628 -0.272470) (xy 2.909245 -0.310110) (xy 2.932437 -0.413478) (xy 2.967618 -0.575151) (xy 3.013201 -0.787707) (xy 3.067602 -1.043723)
     (xy 3.129234 -1.335775) (xy 3.196511 -1.656441) (xy 3.248077 -1.903371) (xy 3.318579 -2.240385) (xy 3.384757 -2.554338) (xy 3.445004 -2.837779) (xy 3.497714 -3.083259) (xy 3.541281 -3.283328)
     (xy 3.574096 -3.430536) (xy 3.594555 -3.517434) (xy 3.600746 -3.538491) (xy 3.644293 -3.545499) )(layer F.SilkS) (width  0.000000)
  )
  (fp_poly (pts (xy -1.119734 2.691529) (xy -1.083821 2.771841) (xy -1.083235 2.784148) (xy -1.114571 2.848186) (xy -1.187417 2.883553) (xy -1.270029 2.876234) (xy -1.280302 2.871153) (xy -1.335948 2.805482)
     (xy -1.334695 2.723571) (xy -1.277638 2.656277) (xy -1.272594 2.653447) (xy -1.191785 2.645765) )(layer F.SilkS) (width  0.000000)
  )
  (fp_poly (pts (xy 0.083080 2.656540) (xy 0.138478 2.718744) (xy 0.149412 2.764118) (xy 0.118431 2.842942) (xy 0.044803 2.884778) (xy -0.042502 2.873889) (xy -0.047655 2.871153) (xy -0.104226 2.809241)
     (xy -0.106129 2.736158) (xy -0.066135 2.672870) (xy 0.002984 2.640343) )(layer F.SilkS) (width  0.000000)
  )
  (fp_poly (pts (xy 1.315727 2.656540) (xy 1.371125 2.718744) (xy 1.382059 2.764118) (xy 1.351078 2.842942) (xy 1.277450 2.884778) (xy 1.190145 2.873889) (xy 1.184992 2.871153) (xy 1.128421 2.809241)
     (xy 1.126518 2.736158) (xy 1.166512 2.672870) (xy 1.235632 2.640343) )(layer F.SilkS) (width  0.000000)
  )
)
