(module LOGO (layer F.Cu)
  (at 0 0)
 (fp_text reference "G***" (at 0 0) (layer F.SilkS) hide
  (effects (font (thickness 0.3)))
  )
  (fp_text value "LOGO" (at 0.75 0) (layer F.SilkS) hide
  (effects (font (thickness 0.3)))
  )
  (fp_poly (pts (xy -4.402667 6.096000) (xy -4.677833 6.096000) (xy -4.825751 6.097855) (xy -4.908140 6.108327) (xy -4.944127 6.134772) (xy -4.952841 6.184548) (xy -4.953000 6.201833) (xy -4.947622 6.260487)
     (xy -4.918234 6.292154) (xy -4.844954 6.305119) (xy -4.707903 6.307664) (xy -4.699000 6.307666) (xy -4.445000 6.307666) (xy -4.445000 6.646333) (xy -4.953000 6.646333) (xy -4.953000 6.900333)
     (xy -4.402667 6.900333) (xy -4.402667 7.281333) (xy -5.376333 7.281333) (xy -5.376333 5.715000) (xy -4.402667 5.715000) (xy -4.402667 6.096000) )(layer F.SilkS) (width  0.010000)
  )
  (fp_poly (pts (xy -3.254751 5.694663) (xy -3.086120 5.756216) (xy -2.919518 5.870954) (xy -2.783733 6.015118) (xy -2.715074 6.140062) (xy -2.671404 6.265333) (xy -2.874308 6.265333) (xy -3.028001 6.251885)
     (xy -3.126861 6.206234) (xy -3.153833 6.180666) (xy -3.267284 6.111786) (xy -3.415220 6.092520) (xy -3.564144 6.122011) (xy -3.675621 6.193978) (xy -3.738959 6.311138) (xy -3.767000 6.466775)
     (xy -3.757375 6.623219) (xy -3.709954 6.739919) (xy -3.585641 6.841323) (xy -3.432822 6.878969) (xy -3.278154 6.852506) (xy -3.148293 6.761587) (xy -3.136488 6.747409) (xy -3.063059 6.680271)
     (xy -2.962406 6.650931) (xy -2.861991 6.646333) (xy -2.738831 6.653512) (xy -2.680192 6.684359) (xy -2.681055 6.752836) (xy -2.736404 6.872906) (xy -2.763121 6.921500) (xy -2.905088 7.093890)
     (xy -3.097184 7.212108) (xy -3.320896 7.271544) (xy -3.557708 7.267589) (xy -3.789106 7.195633) (xy -3.813925 7.183110) (xy -4.006555 7.036615) (xy -4.136362 6.836430) (xy -4.199324 6.589782)
     (xy -4.204893 6.480542) (xy -4.167774 6.217997) (xy -4.063333 5.998777) (xy -3.901165 5.830818) (xy -3.690861 5.722056) (xy -3.442015 5.680423) (xy -3.254751 5.694663) )(layer F.SilkS) (width  0.010000)
  )
  (fp_poly (pts (xy -1.576410 5.689351) (xy -1.356848 5.760632) (xy -1.166908 5.888270) (xy -1.018959 6.063170) (xy -0.925371 6.276237) (xy -0.898513 6.518375) (xy -0.905586 6.597301) (xy -0.976672 6.834477)
     (xy -1.110448 7.028464) (xy -1.293171 7.172491) (xy -1.511096 7.259787) (xy -1.750479 7.283578) (xy -1.997576 7.237094) (xy -2.109543 7.190497) (xy -2.304888 7.052073) (xy -2.439271 6.870663)
     (xy -2.513265 6.661430) (xy -2.520391 6.549941) (xy -2.092761 6.549941) (xy -2.072802 6.629807) (xy -1.992617 6.769844) (xy -1.889822 6.839152) (xy -1.780867 6.883207) (xy -1.705582 6.893581)
     (xy -1.620975 6.870499) (xy -1.548442 6.840930) (xy -1.424839 6.757466) (xy -1.356238 6.629928) (xy -1.330281 6.443438) (xy -1.374774 6.283779) (xy -1.480082 6.165313) (xy -1.636567 6.102402)
     (xy -1.714500 6.096000) (xy -1.889439 6.131558) (xy -2.017228 6.228650) (xy -2.088218 6.372902) (xy -2.092761 6.549941) (xy -2.520391 6.549941) (xy -2.527449 6.439538) (xy -2.482397 6.220150)
     (xy -2.378685 6.018430) (xy -2.216890 5.849541) (xy -2.054918 5.752239) (xy -1.813223 5.683521) (xy -1.576410 5.689351) )(layer F.SilkS) (width  0.010000)
  )
  (fp_poly (pts (xy -0.254000 6.900333) (xy 0.343535 6.900333) (xy 0.330517 7.080250) (xy 0.317500 7.260166) (xy -0.150386 7.272058) (xy -0.341676 7.274331) (xy -0.500824 7.271359) (xy -0.609341 7.263799)
     (xy -0.647803 7.254419) (xy -0.657317 7.204468) (xy -0.665557 7.083983) (xy -0.671990 6.907093) (xy -0.676086 6.687926) (xy -0.677333 6.469944) (xy -0.677333 5.715000) (xy -0.254000 5.715000)
     (xy -0.254000 6.900333) )(layer F.SilkS) (width  0.010000)
  )
  (fp_poly (pts (xy 1.460393 5.714114) (xy 1.670662 5.807126) (xy 1.844873 5.957005) (xy 1.942205 6.106572) (xy 2.011088 6.329111) (xy 2.019823 6.566809) (xy 1.972095 6.795656) (xy 1.871589 6.991641)
     (xy 1.793013 7.078635) (xy 1.611009 7.191124) (xy 1.385374 7.259348) (xy 1.147258 7.278508) (xy 0.927809 7.243810) (xy 0.867833 7.221096) (xy 0.660899 7.086055) (xy 0.511198 6.901942)
     (xy 0.422220 6.685110) (xy 0.400123 6.477000) (xy 0.846667 6.477000) (xy 0.879862 6.663037) (xy 0.970237 6.795953) (xy 1.103978 6.868756) (xy 1.267270 6.874457) (xy 1.446299 6.806065)
     (xy 1.469105 6.791953) (xy 1.552987 6.692140) (xy 1.591939 6.549598) (xy 1.587370 6.392459) (xy 1.540688 6.248855) (xy 1.453299 6.146918) (xy 1.436310 6.136715) (xy 1.291787 6.096944)
     (xy 1.128255 6.105219) (xy 0.985421 6.157395) (xy 0.944645 6.188045) (xy 0.877341 6.277486) (xy 0.849458 6.397876) (xy 0.846667 6.477000) (xy 0.400123 6.477000) (xy 0.397459 6.451912)
     (xy 0.440406 6.218700) (xy 0.554553 6.001827) (xy 0.596421 5.950025) (xy 0.782079 5.795926) (xy 0.999216 5.706550) (xy 1.230949 5.679934) (xy 1.460393 5.714114) )(layer F.SilkS) (width  0.010000)
  )
  (fp_poly (pts (xy 3.192447 5.711581) (xy 3.394822 5.793236) (xy 3.563375 5.931621) (xy 3.647545 6.053666) (xy 3.726526 6.201833) (xy 3.509635 6.214789) (xy 3.340766 6.211238) (xy 3.235388 6.174128)
     (xy 3.219955 6.161872) (xy 3.129086 6.118131) (xy 2.998506 6.096601) (xy 2.973656 6.096000) (xy 2.806981 6.130614) (xy 2.691331 6.230659) (xy 2.631806 6.390436) (xy 2.624667 6.485965)
     (xy 2.643351 6.623672) (xy 2.712228 6.737539) (xy 2.753630 6.781810) (xy 2.849925 6.864649) (xy 2.935606 6.893658) (xy 3.032574 6.886435) (xy 3.176064 6.849171) (xy 3.265656 6.799568)
     (xy 3.295669 6.748856) (xy 3.260419 6.708262) (xy 3.154223 6.689018) (xy 3.132667 6.688666) (xy 2.963333 6.688666) (xy 2.963333 6.350000) (xy 3.767667 6.350000) (xy 3.767430 6.466416)
     (xy 3.732927 6.705338) (xy 3.638550 6.924620) (xy 3.496524 7.103761) (xy 3.319076 7.222258) (xy 3.315919 7.223589) (xy 3.139737 7.267424) (xy 2.932444 7.276560) (xy 2.736283 7.251142)
     (xy 2.645833 7.221331) (xy 2.485530 7.116530) (xy 2.341564 6.965623) (xy 2.246542 6.802809) (xy 2.246360 6.802327) (xy 2.210578 6.635544) (xy 2.204239 6.432484) (xy 2.226539 6.235948)
     (xy 2.259077 6.124413) (xy 2.379488 5.935209) (xy 2.549769 5.798470) (xy 2.753182 5.715051) (xy 2.972987 5.685804) (xy 3.192447 5.711581) )(layer F.SilkS) (width  0.010000)
  )
  (fp_poly (pts (xy 4.511184 6.216738) (xy 4.633624 5.982880) (xy 4.705790 5.856775) (xy 4.770133 5.764383) (xy 4.806994 5.729479) (xy 4.877767 5.720345) (xy 4.996605 5.720181) (xy 5.052677 5.723051)
     (xy 5.247430 5.736166) (xy 4.974151 6.201833) (xy 4.861353 6.395873) (xy 4.784806 6.537050) (xy 4.737450 6.645249) (xy 4.712228 6.740359) (xy 4.702080 6.842266) (xy 4.699947 6.970858)
     (xy 4.699936 6.974416) (xy 4.699000 7.281333) (xy 4.515555 7.281333) (xy 4.396762 7.275329) (xy 4.317025 7.260255) (xy 4.303889 7.253111) (xy 4.290068 7.199700) (xy 4.280008 7.085338)
     (xy 4.275704 6.933719) (xy 4.275667 6.917893) (xy 4.273851 6.783778) (xy 4.263485 6.679026) (xy 4.237184 6.582209) (xy 4.187567 6.471903) (xy 4.107252 6.326679) (xy 4.021667 6.180666)
     (xy 3.922540 6.011350) (xy 3.841517 5.870267) (xy 3.787072 5.772360) (xy 3.767667 5.732717) (xy 3.805945 5.722967) (xy 3.904589 5.716532) (xy 3.998048 5.715000) (xy 4.228430 5.715000)
     (xy 4.511184 6.216738) )(layer F.SilkS) (width  0.010000)
  )
  (fp_poly (pts (xy -1.051049 3.589878) (xy -0.859035 3.674687) (xy -0.842655 3.685857) (xy -0.762307 3.763509) (xy -0.674969 3.876992) (xy -0.599609 3.997757) (xy -0.555196 4.097254) (xy -0.550333 4.125813)
     (xy -0.588291 4.139217) (xy -0.684718 4.147439) (xy -0.748688 4.148666) (xy -0.907405 4.132800) (xy -1.019626 4.078190) (xy -1.047408 4.054378) (xy -1.179312 3.978016) (xy -1.319213 3.960090)
     (xy -1.483727 3.996066) (xy -1.606048 4.093190) (xy -1.678409 4.235259) (xy -1.693042 4.406068) (xy -1.642178 4.589414) (xy -1.631399 4.611305) (xy -1.528119 4.731157) (xy -1.388249 4.784720)
     (xy -1.230533 4.769791) (xy -1.073715 4.684161) (xy -1.066054 4.677833) (xy -0.941308 4.600920) (xy -0.790862 4.572977) (xy -0.745306 4.572000) (xy -0.615805 4.580177) (xy -0.560490 4.614419)
     (xy -0.569666 4.689293) (xy -0.610054 4.775185) (xy -0.758363 4.973823) (xy -0.955863 5.113866) (xy -1.185742 5.189747) (xy -1.431187 5.195900) (xy -1.673918 5.127427) (xy -1.876987 4.995591)
     (xy -2.022416 4.820557) (xy -2.111605 4.616399) (xy -2.145956 4.397192) (xy -2.126870 4.177012) (xy -2.055749 3.969933) (xy -1.933994 3.790031) (xy -1.763005 3.651380) (xy -1.544185 3.568056)
     (xy -1.518175 3.563034) (xy -1.281773 3.550659) (xy -1.051049 3.589878) )(layer F.SilkS) (width  0.010000)
  )
  (fp_poly (pts (xy 4.783640 3.594633) (xy 4.985085 3.710631) (xy 5.069417 3.792278) (xy 5.174129 3.930239) (xy 5.208335 4.025005) (xy 5.171124 4.081593) (xy 5.061591 4.105020) (xy 5.012594 4.106333)
     (xy 4.815337 4.077677) (xy 4.710551 4.021666) (xy 4.556456 3.945801) (xy 4.399583 3.952928) (xy 4.249459 4.042273) (xy 4.230077 4.060743) (xy 4.134041 4.211082) (xy 4.104948 4.385152)
     (xy 4.141210 4.557639) (xy 4.241241 4.703228) (xy 4.271998 4.729403) (xy 4.367822 4.769037) (xy 4.493226 4.779601) (xy 4.621616 4.764821) (xy 4.726398 4.728420) (xy 4.780979 4.674125)
     (xy 4.783667 4.657732) (xy 4.746226 4.630005) (xy 4.653404 4.609285) (xy 4.624917 4.606305) (xy 4.523202 4.592695) (xy 4.478051 4.557064) (xy 4.466512 4.473031) (xy 4.466167 4.423833)
     (xy 4.466167 4.254500) (xy 4.885003 4.242310) (xy 5.303840 4.230120) (xy 5.278032 4.448031) (xy 5.210691 4.708081) (xy 5.083232 4.921007) (xy 4.907564 5.079788) (xy 4.695593 5.177404)
     (xy 4.459229 5.206832) (xy 4.210380 5.161051) (xy 4.125748 5.127427) (xy 3.916048 4.990043) (xy 3.764660 4.804464) (xy 3.674159 4.586223) (xy 3.647115 4.350852) (xy 3.686100 4.113885)
     (xy 3.793686 3.890854) (xy 3.899768 3.762565) (xy 4.092533 3.624779) (xy 4.317406 3.551200) (xy 4.554428 3.541320) (xy 4.783640 3.594633) )(layer F.SilkS) (width  0.010000)
  )
  (fp_poly (pts (xy -3.979333 5.164666) (xy -4.445000 5.164666) (xy -4.445000 4.529666) (xy -4.953000 4.529666) (xy -4.953000 5.164666) (xy -5.376333 5.164666) (xy -5.376333 3.556000) (xy -4.953000 3.556000)
     (xy -4.953000 4.148666) (xy -4.448869 4.148666) (xy -4.423833 3.577166) (xy -4.201583 3.564371) (xy -3.979333 3.551575) (xy -3.979333 5.164666) )(layer F.SilkS) (width  0.010000)
  )
  (fp_poly (pts (xy -2.888608 3.634946) (xy -2.797037 3.785175) (xy -2.684778 4.011115) (xy -2.543478 4.312758) (xy -2.538667 4.323055) (xy -2.428488 4.559136) (xy -2.330599 4.769530) (xy -2.250665 4.942007)
     (xy -2.194352 5.064337) (xy -2.167326 5.124290) (xy -2.166056 5.127388) (xy -2.196281 5.147524) (xy -2.289066 5.161060) (xy -2.389213 5.164666) (xy -2.528276 5.160489) (xy -2.608012 5.141735)
     (xy -2.653597 5.099071) (xy -2.674703 5.058833) (xy -2.707799 5.001992) (xy -2.756632 4.970178) (xy -2.843581 4.956236) (xy -2.991026 4.953009) (xy -3.005667 4.953000) (xy -3.158750 4.955694)
     (xy -3.249599 4.968547) (xy -3.300592 4.998715) (xy -3.334109 5.053354) (xy -3.336631 5.058833) (xy -3.373871 5.120013) (xy -3.430384 5.151767) (xy -3.531347 5.163430) (xy -3.622120 5.164666)
     (xy -3.748034 5.158846) (xy -3.828363 5.143788) (xy -3.845278 5.128178) (xy -3.823728 5.080254) (xy -3.771863 4.967892) (xy -3.695355 4.803290) (xy -3.599876 4.598647) (xy -3.597781 4.594169)
     (xy -3.116192 4.594169) (xy -3.056595 4.612717) (xy -3.005667 4.614333) (xy -2.913677 4.605513) (xy -2.888941 4.572448) (xy -2.895485 4.546900) (xy -2.926465 4.452002) (xy -2.946937 4.377567)
     (xy -2.983904 4.291469) (xy -3.025158 4.289125) (xy -3.062580 4.370534) (xy -3.064397 4.377567) (xy -3.095257 4.486190) (xy -3.115849 4.546900) (xy -3.116192 4.594169) (xy -3.597781 4.594169)
     (xy -3.491098 4.366163) (xy -3.471333 4.323985) (xy -3.328485 4.019769) (xy -3.215064 3.791315) (xy -3.122719 3.638614) (xy -3.043096 3.561657) (xy -2.967843 3.560438) (xy -2.888608 3.634946) )(layer F.SilkS) (width  0.010000)
  )
  (fp_poly (pts (xy 0.127000 3.852333) (xy 0.133797 4.027425) (xy 0.158817 4.124514) (xy 0.209004 4.149510) (xy 0.291301 4.108322) (xy 0.361637 4.052019) (xy 0.447004 3.946156) (xy 0.490858 3.798171)
     (xy 0.496503 3.755686) (xy 0.519011 3.556000) (xy 0.931333 3.556000) (xy 0.931097 3.714750) (xy 0.908108 3.936746) (xy 0.846382 4.140888) (xy 0.765396 4.281985) (xy 0.730479 4.329395)
     (xy 0.716102 4.375123) (xy 0.726296 4.436837) (xy 0.765096 4.532208) (xy 0.836536 4.678903) (xy 0.872283 4.750194) (xy 0.951519 4.910070) (xy 1.013962 5.040077) (xy 1.051353 5.122793)
     (xy 1.058333 5.142654) (xy 1.020018 5.154665) (xy 0.921105 5.162660) (xy 0.823413 5.164666) (xy 0.588493 5.164666) (xy 0.437713 4.847166) (xy 0.348770 4.673901) (xy 0.278692 4.571774)
     (xy 0.220570 4.531276) (xy 0.206966 4.529666) (xy 0.165955 4.538421) (xy 0.141882 4.576259) (xy 0.130376 4.660541) (xy 0.127064 4.808627) (xy 0.127000 4.847166) (xy 0.127000 5.164666)
     (xy -0.338667 5.164666) (xy -0.338667 3.556000) (xy 0.127000 3.556000) (xy 0.127000 3.852333) )(layer F.SilkS) (width  0.010000)
  )
  (fp_poly (pts (xy 1.693333 5.164666) (xy 1.227667 5.164666) (xy 1.227667 3.556000) (xy 1.693333 3.556000) (xy 1.693333 5.164666) )(layer F.SilkS) (width  0.010000)
  )
  (fp_poly (pts (xy 3.187263 3.564429) (xy 3.407833 3.577166) (xy 3.419351 4.370916) (xy 3.430868 5.164666) (xy 3.306553 5.164666) (xy 3.242592 5.154193) (xy 3.171436 5.116111) (xy 3.080690 5.040425)
     (xy 2.957956 4.917141) (xy 2.834018 4.783666) (xy 2.698109 4.637140) (xy 2.582619 4.516712) (xy 2.499441 4.434500) (xy 2.460473 4.402626) (xy 2.459982 4.402569) (xy 2.450016 4.441661)
     (xy 2.444943 4.546464) (xy 2.445366 4.698131) (xy 2.447754 4.783569) (xy 2.461342 5.164666) (xy 1.989667 5.164666) (xy 1.989667 3.556000) (xy 2.084917 3.557956) (xy 2.161781 3.589452)
     (xy 2.287050 3.677795) (xy 2.452549 3.816843) (xy 2.561167 3.915886) (xy 2.942167 4.271861) (xy 2.954429 3.911776) (xy 2.966692 3.551691) (xy 3.187263 3.564429) )(layer F.SilkS) (width  0.010000)
  )
  (fp_poly (pts (xy -4.246956 -7.193318) (xy -4.042256 -7.114193) (xy -3.880345 -6.972097) (xy -3.751703 -6.767865) (xy -3.717452 -6.697442) (xy -3.691085 -6.632935) (xy -3.671573 -6.562475) (xy -3.657883 -6.474193)
     (xy -3.648984 -6.356223) (xy -3.643843 -6.196695) (xy -3.641430 -5.983741) (xy -3.640713 -5.705493) (xy -3.640667 -5.490493) (xy -3.640336 -5.164809) (xy -3.638889 -4.914368) (xy -3.635647 -4.729747)
     (xy -3.629927 -4.601523) (xy -3.621049 -4.520274) (xy -3.608334 -4.476577) (xy -3.591099 -4.461008) (xy -3.568665 -4.464146) (xy -3.566584 -4.464939) (xy -3.308606 -4.563056) (xy -3.101756 -4.632003)
     (xy -2.919748 -4.676898) (xy -2.736297 -4.702860) (xy -2.525118 -4.715007) (xy -2.264833 -4.718446) (xy -2.008588 -4.717138) (xy -1.814476 -4.709895) (xy -1.660037 -4.694306) (xy -1.522810 -4.667961)
     (xy -1.380335 -4.628451) (xy -1.356159 -4.620937) (xy -0.859046 -4.424048) (xy -0.415333 -4.163374) (xy -0.027997 -3.841393) (xy 0.299985 -3.460582) (xy 0.565635 -3.023419) (xy 0.567171 -3.020360)
     (xy 0.669095 -2.798259) (xy 0.749742 -2.574778) (xy 0.812005 -2.334830) (xy 0.858775 -2.063333) (xy 0.892945 -1.745201) (xy 0.917405 -1.365348) (xy 0.927073 -1.143000) (xy 0.938969 -0.846790)
     (xy 0.950316 -0.620032) (xy 0.963148 -0.447549) (xy 0.979500 -0.314167) (xy 1.001404 -0.204711) (xy 1.030894 -0.104004) (xy 1.070005 0.003129) (xy 1.086239 0.044691) (xy 1.307112 0.491042)
     (xy 1.602486 0.902039) (xy 1.968308 1.273922) (xy 2.400529 1.602928) (xy 2.895095 1.885294) (xy 3.229057 2.034400) (xy 3.360853 2.092148) (xy 3.421078 2.132288) (xy 3.419103 2.162038)
     (xy 3.406274 2.170876) (xy 3.318398 2.195010) (xy 3.166472 2.212371) (xy 2.970857 2.222765) (xy 2.751912 2.226003) (xy 2.529998 2.221892) (xy 2.325475 2.210241) (xy 2.158705 2.190859)
     (xy 2.116667 2.182999) (xy 1.583942 2.029344) (xy 1.091702 1.805713) (xy 0.646021 1.516356) (xy 0.252972 1.165524) (xy -0.081370 0.757465) (xy -0.213034 0.552970) (xy -0.372311 0.245143)
     (xy -0.519169 -0.113249) (xy -0.646796 -0.498767) (xy -0.748377 -0.887973) (xy -0.817100 -1.257428) (xy -0.846152 -1.583693) (xy -0.846667 -1.626827) (xy -0.872061 -1.942801) (xy -0.953339 -2.210098)
     (xy -1.098145 -2.449620) (xy -1.185411 -2.553192) (xy -1.381745 -2.740859) (xy -1.582042 -2.868683) (xy -1.807850 -2.945435) (xy -2.080714 -2.979887) (xy -2.243667 -2.983994) (xy -2.460092 -2.979821)
     (xy -2.618493 -2.964100) (xy -2.745172 -2.932872) (xy -2.841515 -2.893989) (xy -3.120019 -2.720814) (xy -3.352887 -2.486147) (xy -3.501801 -2.250464) (xy -3.544064 -2.160416) (xy -3.575308 -2.077474)
     (xy -3.597677 -1.986179) (xy -3.613315 -1.871070) (xy -3.624366 -1.716688) (xy -3.632974 -1.507573) (xy -3.640711 -1.248834) (xy -3.649089 -0.973857) (xy -3.657890 -0.769365) (xy -3.668964 -0.621192)
     (xy -3.684165 -0.515167) (xy -3.705342 -0.437124) (xy -3.734349 -0.372892) (xy -3.761162 -0.327177) (xy -3.932667 -0.120362) (xy -4.138286 0.018642) (xy -4.364328 0.091379) (xy -4.597101 0.099390)
     (xy -4.822914 0.044218) (xy -5.028074 -0.072593) (xy -5.198889 -0.249502) (xy -5.321667 -0.484965) (xy -5.328154 -0.503734) (xy -5.337124 -0.572707) (xy -5.345233 -0.717798) (xy -5.352473 -0.930462)
     (xy -5.358833 -1.202157) (xy -5.364303 -1.524337) (xy -5.368874 -1.888459) (xy -5.372535 -2.285978) (xy -5.375278 -2.708350) (xy -5.377091 -3.147031) (xy -5.377966 -3.593477) (xy -5.377892 -4.039144)
     (xy -5.376861 -4.475487) (xy -5.374862 -4.893962) (xy -5.371884 -5.286025) (xy -5.367918 -5.643132) (xy -5.362955 -5.956738) (xy -5.356985 -6.218300) (xy -5.349997 -6.419274) (xy -5.341983 -6.551114)
     (xy -5.335154 -6.599976) (xy -5.226358 -6.837203) (xy -5.053971 -7.041446) (xy -4.959919 -7.115818) (xy -4.860437 -7.172909) (xy -4.752696 -7.204216) (xy -4.606349 -7.216597) (xy -4.508510 -7.217834)
     (xy -4.246956 -7.193318) )(layer F.SilkS) (width  0.010000)
  )
  (fp_poly (pts (xy 4.767751 -0.148951) (xy 4.985087 -0.066255) (xy 5.171655 0.073323) (xy 5.314200 0.260679) (xy 5.399467 0.486712) (xy 5.417970 0.664647) (xy 5.390469 0.869265) (xy 5.304216 1.057771)
     (xy 5.151355 1.242515) (xy 4.930840 1.430696) (xy 4.769655 1.544017) (xy 4.585618 1.659273) (xy 4.396802 1.766736) (xy 4.221281 1.856678) (xy 4.077128 1.919372) (xy 3.982416 1.945091)
     (xy 3.974891 1.945219) (xy 3.911537 1.930494) (xy 3.789317 1.892622) (xy 3.628653 1.838142) (xy 3.523358 1.800591) (xy 3.031332 1.590742) (xy 2.584401 1.337317) (xy 2.191386 1.047142)
     (xy 1.861107 0.727045) (xy 1.602387 0.383853) (xy 1.528995 0.256962) (xy 1.461626 0.125714) (xy 1.414062 0.023783) (xy 1.397000 -0.025101) (xy 1.423758 -0.018115) (xy 1.492616 0.036422)
     (xy 1.555750 0.095029) (xy 1.796787 0.274680) (xy 2.091058 0.406276) (xy 2.420490 0.487416) (xy 2.767013 0.515699) (xy 3.112558 0.488724) (xy 3.439053 0.404090) (xy 3.547208 0.359613)
     (xy 3.715336 0.270719) (xy 3.884801 0.162688) (xy 3.964114 0.103225) (xy 4.098147 0.004707) (xy 4.235036 -0.078699) (xy 4.293795 -0.107293) (xy 4.532901 -0.165664) (xy 4.767751 -0.148951) )(layer F.SilkS) (width  0.010000)
  )
  (fp_poly (pts (xy 4.492437 -4.029720) (xy 4.733206 -3.943103) (xy 4.949287 -3.801701) (xy 5.123927 -3.614157) (xy 5.240373 -3.389112) (xy 5.249172 -3.361566) (xy 5.272868 -3.139446) (xy 5.214770 -2.911602)
     (xy 5.077314 -2.680896) (xy 4.862935 -2.450193) (xy 4.574069 -2.222354) (xy 4.213153 -2.000242) (xy 3.993749 -1.885954) (xy 3.671751 -1.739210) (xy 3.351089 -1.615213) (xy 3.043341 -1.516687)
     (xy 2.760086 -1.446355) (xy 2.512903 -1.406941) (xy 2.313371 -1.401168) (xy 2.173067 -1.431760) (xy 2.141736 -1.450302) (xy 2.090651 -1.495386) (xy 2.107014 -1.520348) (xy 2.177732 -1.540773)
     (xy 2.356763 -1.625287) (xy 2.541691 -1.786504) (xy 2.727253 -2.017198) (xy 2.908190 -2.310146) (xy 3.079238 -2.658121) (xy 3.190707 -2.931736) (xy 3.354464 -3.310232) (xy 3.531155 -3.607842)
     (xy 3.723143 -3.827685) (xy 3.932793 -3.972880) (xy 4.003845 -4.004028) (xy 4.243733 -4.052909) (xy 4.492437 -4.029720) )(layer F.SilkS) (width  0.010000)
  )
  (fp_poly (pts (xy 3.198349 -4.640873) (xy 3.678583 -4.538214) (xy 4.079977 -4.387549) (xy 4.296833 -4.287059) (xy 4.127500 -4.254473) (xy 3.838625 -4.156087) (xy 3.572207 -3.977468) (xy 3.330509 -3.720607)
     (xy 3.115795 -3.387494) (xy 3.093346 -3.345177) (xy 2.922416 -3.016628) (xy 2.593625 -2.997563) (xy 2.246863 -2.942846) (xy 1.938540 -2.818463) (xy 1.660754 -2.619942) (xy 1.405602 -2.342813)
     (xy 1.382198 -2.312162) (xy 1.296440 -2.198607) (xy 1.233177 -2.115694) (xy 1.207511 -2.083091) (xy 1.185261 -2.104765) (xy 1.169396 -2.139470) (xy 1.145734 -2.233403) (xy 1.143000 -2.266083)
     (xy 1.123250 -2.374895) (xy 1.069735 -2.537330) (xy 0.991060 -2.733708) (xy 0.895827 -2.944350) (xy 0.792640 -3.149576) (xy 0.690102 -3.329704) (xy 0.652127 -3.388931) (xy 0.556328 -3.538669)
     (xy 0.484918 -3.663148) (xy 0.447147 -3.745480) (xy 0.444596 -3.767822) (xy 0.503756 -3.828551) (xy 0.617815 -3.919409) (xy 0.768552 -4.027846) (xy 0.937743 -4.141311) (xy 1.107166 -4.247253)
     (xy 1.258599 -4.333122) (xy 1.285404 -4.346924) (xy 1.731000 -4.525642) (xy 2.208837 -4.634358) (xy 2.703193 -4.672845) (xy 3.198349 -4.640873) )(layer F.SilkS) (width  0.010000)
  )
)
