
(kicad_symbol_lib (version 20211014) (generator kicad_symbol_editor)
  (symbol "10118192-0001LF" (pin_names (offset 1.016)) (in_bom yes) (on_board yes)
    (property "Reference" "J" (id 0) (at -5.08618 10.681 0)
      (effects (font (size 1.27 1.27)) (justify bottom left))
    )
    (property "Value" "10118192-0001LF" (id 1) (at -5.08821 -12.7205 0)
      (effects (font (size 1.27 1.27)) (justify bottom left))
    )
    (property "Footprint" "AMPHENOL_10118192-0001LF" (id 2) (at 0 0 0)
      (effects (font (size 1.27 1.27)) (justify bottom) hide)
    )
    (property "MANUFACTURER" "Amphenol" (id 4) (at 0 0 0)
      (effects (font (size 1.27 1.27)) (justify bottom) hide)
    )
    (property "STANDARD" "Manufacturer Recommendation" (id 5) (at 0 0 0)
      (effects (font (size 1.27 1.27)) (justify bottom) hide)
    )
    (property "PARTREV" "B" (id 6) (at 0 0 0)
      (effects (font (size 1.27 1.27)) (justify bottom) hide)
    )
    (symbol "10118192-0001LF_0_0"
      (rectangle (start -5.08 -10.16) (end 5.08 10.16)
        (stroke (width 0.1524)) (fill (type background))
      )
      (pin passive line (at -7.62 7.62 0) (length 2.54)
        (name "VUSB"
          (effects (font (size 1.016 1.016)))
        )
        (number "1"
          (effects (font (size 1.016 1.016)))
        )
      )
      (pin passive line (at -7.62 5.08 0) (length 2.54)
        (name "D-"
          (effects (font (size 1.016 1.016)))
        )
        (number "2"
          (effects (font (size 1.016 1.016)))
        )
      )
      (pin passive line (at -7.62 2.54 0) (length 2.54)
        (name "D+"
          (effects (font (size 1.016 1.016)))
        )
        (number "3"
          (effects (font (size 1.016 1.016)))
        )
      )
      (pin passive line (at -7.62 0.0 0) (length 2.54)
        (name "ID"
          (effects (font (size 1.016 1.016)))
        )
        (number "4"
          (effects (font (size 1.016 1.016)))
        )
      )
      (pin passive line (at -7.62 -2.54 0) (length 2.54)
        (name "GND"
          (effects (font (size 1.016 1.016)))
        )
        (number "5"
          (effects (font (size 1.016 1.016)))
        )
      )
      (pin passive line (at -7.62 -7.62 0) (length 2.54)
        (name "SHIELD"
          (effects (font (size 1.016 1.016)))
        )
        (number "SH1"
          (effects (font (size 1.016 1.016)))
        )
      )
      (pin passive line (at -7.62 -7.62 0) (length 2.54)
        (name "SHIELD"
          (effects (font (size 1.016 1.016)))
        )
        (number "SH2"
          (effects (font (size 1.016 1.016)))
        )
      )
      (pin passive line (at -7.62 -7.62 0) (length 2.54)
        (name "SHIELD"
          (effects (font (size 1.016 1.016)))
        )
        (number "SH3"
          (effects (font (size 1.016 1.016)))
        )
      )
      (pin passive line (at -7.62 -7.62 0) (length 2.54)
        (name "SHIELD"
          (effects (font (size 1.016 1.016)))
        )
        (number "SH4"
          (effects (font (size 1.016 1.016)))
        )
      )
      (pin passive line (at -7.62 -7.62 0) (length 2.54)
        (name "SHIELD"
          (effects (font (size 1.016 1.016)))
        )
        (number "SH5"
          (effects (font (size 1.016 1.016)))
        )
      )
      (pin passive line (at -7.62 -7.62 0) (length 2.54)
        (name "SHIELD"
          (effects (font (size 1.016 1.016)))
        )
        (number "SH6"
          (effects (font (size 1.016 1.016)))
        )
      )
    )
  )
)