
(footprint HRS_U.FL-R-SMT-1_10_ (layer F.Cu) (tedit 6380880A)
  (descr "")
  (fp_text reference REF** (at -0.060005 -2.308375 0) (layer F.SilkS)
    (effects (font (size 0.800133858268 0.800133858268) (thickness 0.15)))
  )
  (fp_text value HRS_U.FL-R-SMT-1_10_ (at 7.56342 3.0934 0) (layer F.Fab)
    (effects (font (size 0.800362204724 0.800362204724) (thickness 0.15)))
  )
  (pad 2 smd rect (at 0.0 1.525) (size 1.0 1.05) (layers F.Cu F.Mask F.Paste))
  (pad 1 smd rect (at -1.475 0.0) (size 1.05 2.2) (layers F.Cu F.Mask F.Paste))
  (pad 3 smd rect (at 1.475 0.0) (size 1.05 2.2) (layers F.Cu F.Mask F.Paste))
  (fp_circle (center 0.0 0.0) (end 1.0 0.0) (layer F.Fab) (width 0.127))
  (fp_circle (center 0.0 0.0) (end 0.3 0.0) (layer F.SilkS) (width 0.0))
  (fp_line (start -2.4 -1.6) (end 2.4 -1.6) (layer F.CrtYd) (width 0.05))
  (fp_line (start 2.4 -1.6) (end 2.4 2.4) (layer F.CrtYd) (width 0.05))
  (fp_line (start 2.4 2.4) (end -2.4 2.4) (layer F.CrtYd) (width 0.05))
  (fp_line (start -2.4 2.4) (end -2.4 -1.6) (layer F.CrtYd) (width 0.05))
  (fp_line (start -1.3 -1.3) (end 1.3 -1.3) (layer F.Fab) (width 0.127))
  (fp_line (start 1.3 -1.3) (end 1.3 1.3) (layer F.Fab) (width 0.127))
  (fp_line (start 1.3 1.3) (end -1.3 1.3) (layer F.Fab) (width 0.127))
  (fp_line (start -1.3 1.3) (end -1.3 -1.3) (layer F.Fab) (width 0.127))
  (fp_line (start -1.3 -1.3) (end 1.3 -1.3) (layer F.SilkS) (width 0.127))
  (zone (net 0) (net_name "") (layer F.Cu) (hatch full 0.508)
    (connect_pads (clearance 0))
    (min_thickness 0.01)
    (keepout (tracks not_allowed) (vias not_allowed) (pads not_allowed ) (copperpour not_allowed) (footprints allowed))
    (fill (thermal_gap 0.508) (thermal_bridge_width 0.508))
    (polygon
      (pts
        (xy -0.80049 -1.3)
        (xy 0.8 -1.3)
        (xy 0.8 0.900551)
        (xy -0.80049 0.900551)
      )
    )
  )
)