
(footprint MODULE_ESP32-WROVER-B (layer F.Cu) (tedit 63874942)
  (descr "")
  (fp_text reference REF** (at -5.825 -16.975 0) (layer F.SilkS)
    (effects (font (size 1.0 1.0) (thickness 0.15)))
  )
  (fp_text value MODULE_ESP32-WROVER-B (at 4.135 17.015 0) (layer F.Fab)
    (effects (font (size 1.0 1.0) (thickness 0.15)))
  )
  (pad 1 smd rect (at -8.75 -8.26) (size 1.5 0.9) (layers F.Cu F.Mask F.Paste))
  (pad 2 smd rect (at -8.75 -6.99) (size 1.5 0.9) (layers F.Cu F.Mask F.Paste))
  (pad 3 smd rect (at -8.75 -5.72) (size 1.5 0.9) (layers F.Cu F.Mask F.Paste))
  (pad 4 smd rect (at -8.75 -4.45) (size 1.5 0.9) (layers F.Cu F.Mask F.Paste))
  (pad 5 smd rect (at -8.75 -3.18) (size 1.5 0.9) (layers F.Cu F.Mask F.Paste))
  (pad 6 smd rect (at -8.75 -1.91) (size 1.5 0.9) (layers F.Cu F.Mask F.Paste))
  (pad 7 smd rect (at -8.75 -0.64) (size 1.5 0.9) (layers F.Cu F.Mask F.Paste))
  (pad 8 smd rect (at -8.75 0.63) (size 1.5 0.9) (layers F.Cu F.Mask F.Paste))
  (pad 9 smd rect (at -8.75 1.9) (size 1.5 0.9) (layers F.Cu F.Mask F.Paste))
  (pad 10 smd rect (at -8.75 3.17) (size 1.5 0.9) (layers F.Cu F.Mask F.Paste))
  (pad 11 smd rect (at -8.75 4.44) (size 1.5 0.9) (layers F.Cu F.Mask F.Paste))
  (pad 12 smd rect (at -8.75 5.71) (size 1.5 0.9) (layers F.Cu F.Mask F.Paste))
  (pad 13 smd rect (at -8.75 6.98) (size 1.5 0.9) (layers F.Cu F.Mask F.Paste))
  (pad 14 smd rect (at -8.75 8.25) (size 1.5 0.9) (layers F.Cu F.Mask F.Paste))
  (pad 15 smd rect (at -8.75 9.52) (size 1.5 0.9) (layers F.Cu F.Mask F.Paste))
  (pad 16 smd rect (at -8.75 10.79) (size 1.5 0.9) (layers F.Cu F.Mask F.Paste))
  (pad 17 smd rect (at -8.75 12.06) (size 1.5 0.9) (layers F.Cu F.Mask F.Paste))
  (pad 18 smd rect (at -8.75 13.33) (size 1.5 0.9) (layers F.Cu F.Mask F.Paste))
  (pad 19 smd rect (at -8.75 14.6) (size 1.5 0.9) (layers F.Cu F.Mask F.Paste))
  (pad 38 smd rect (at 8.75 -8.26) (size 1.5 0.9) (layers F.Cu F.Mask F.Paste))
  (pad 37 smd rect (at 8.75 -6.99) (size 1.5 0.9) (layers F.Cu F.Mask F.Paste))
  (pad 36 smd rect (at 8.75 -5.72) (size 1.5 0.9) (layers F.Cu F.Mask F.Paste))
  (pad 35 smd rect (at 8.75 -4.45) (size 1.5 0.9) (layers F.Cu F.Mask F.Paste))
  (pad 34 smd rect (at 8.75 -3.18) (size 1.5 0.9) (layers F.Cu F.Mask F.Paste))
  (pad 33 smd rect (at 8.75 -1.91) (size 1.5 0.9) (layers F.Cu F.Mask F.Paste))
  (pad 32 smd rect (at 8.75 -0.64) (size 1.5 0.9) (layers F.Cu F.Mask F.Paste))
  (pad 31 smd rect (at 8.75 0.63) (size 1.5 0.9) (layers F.Cu F.Mask F.Paste))
  (pad 30 smd rect (at 8.75 1.9) (size 1.5 0.9) (layers F.Cu F.Mask F.Paste))
  (pad 29 smd rect (at 8.75 3.17) (size 1.5 0.9) (layers F.Cu F.Mask F.Paste))
  (pad 28 smd rect (at 8.75 4.44) (size 1.5 0.9) (layers F.Cu F.Mask F.Paste))
  (pad 27 smd rect (at 8.75 5.71) (size 1.5 0.9) (layers F.Cu F.Mask F.Paste))
  (pad 26 smd rect (at 8.75 6.98) (size 1.5 0.9) (layers F.Cu F.Mask F.Paste))
  (pad 25 smd rect (at 8.75 8.25) (size 1.5 0.9) (layers F.Cu F.Mask F.Paste))
  (pad 24 smd rect (at 8.75 9.52) (size 1.5 0.9) (layers F.Cu F.Mask F.Paste))
  (pad 23 smd rect (at 8.75 10.79) (size 1.5 0.9) (layers F.Cu F.Mask F.Paste))
  (pad 22 smd rect (at 8.75 12.06) (size 1.5 0.9) (layers F.Cu F.Mask F.Paste))
  (pad 21 smd rect (at 8.75 13.33) (size 1.5 0.9) (layers F.Cu F.Mask F.Paste))
  (pad 20 smd rect (at 8.75 14.6) (size 1.5 0.9) (layers F.Cu F.Mask F.Paste))
  (pad 39 smd rect (at -2.9 -0.46) (size 0.9 0.9) (layers F.Cu F.Mask F.Paste))
  (pad 40 smd rect (at -1.5 -0.46) (size 0.9 0.9) (layers F.Cu F.Mask F.Paste))
  (pad 41 smd rect (at -0.1 -0.46) (size 0.9 0.9) (layers F.Cu F.Mask F.Paste))
  (pad 42 smd rect (at -2.9 -1.86) (size 0.9 0.9) (layers F.Cu F.Mask F.Paste))
  (pad 43 smd rect (at -1.5 -1.86) (size 0.9 0.9) (layers F.Cu F.Mask F.Paste))
  (pad 44 smd rect (at -0.1 -1.86) (size 0.9 0.9) (layers F.Cu F.Mask F.Paste))
  (pad 45 smd rect (at -2.9 0.94) (size 0.9 0.9) (layers F.Cu F.Mask F.Paste))
  (pad 46 smd rect (at -1.5 0.94) (size 0.9 0.9) (layers F.Cu F.Mask F.Paste))
  (pad 47 smd rect (at -0.1 0.94) (size 0.9 0.9) (layers F.Cu F.Mask F.Paste))
  (pad 48 thru_hole circle (at -0.1 -1.16) (size 0.3 0.3) (drill 0.2) (layers *.Cu *.Mask))
  (pad 49 thru_hole circle (at -1.5 -1.16) (size 0.3 0.3) (drill 0.2) (layers *.Cu *.Mask))
  (pad 50 thru_hole circle (at -2.9 -1.16) (size 0.3 0.3) (drill 0.2) (layers *.Cu *.Mask))
  (pad 51 thru_hole circle (at -2.9 0.24) (size 0.3 0.3) (drill 0.2) (layers *.Cu *.Mask))
  (pad 52 thru_hole circle (at -1.5 0.24) (size 0.3 0.3) (drill 0.2) (layers *.Cu *.Mask))
  (pad 53 thru_hole circle (at -0.1 0.24) (size 0.3 0.3) (drill 0.2) (layers *.Cu *.Mask))
  (pad 54 thru_hole circle (at -0.8 -1.86) (size 0.3 0.3) (drill 0.2) (layers *.Cu *.Mask))
  (pad 55 thru_hole circle (at -2.2 -1.86) (size 0.3 0.3) (drill 0.2) (layers *.Cu *.Mask))
  (pad 56 thru_hole circle (at -0.8 -0.46) (size 0.3 0.3) (drill 0.2) (layers *.Cu *.Mask))
  (pad 57 thru_hole circle (at -2.2 -0.46) (size 0.3 0.3) (drill 0.2) (layers *.Cu *.Mask))
  (pad 58 thru_hole circle (at -2.2 0.94) (size 0.3 0.3) (drill 0.2) (layers *.Cu *.Mask))
  (pad 59 thru_hole circle (at -0.8 0.94) (size 0.3 0.3) (drill 0.2) (layers *.Cu *.Mask))
  (fp_line (start -9.0 15.7) (end 9.0 15.7) (layer F.SilkS) (width 0.127))
  (fp_line (start 9.0 -15.7) (end -9.0 -15.7) (layer F.SilkS) (width 0.127))
  (fp_line (start -9.0 -15.7) (end -9.0 -9.15) (layer F.SilkS) (width 0.127))
  (fp_line (start 9.0 -9.15) (end 9.0 -15.7) (layer F.SilkS) (width 0.127))
  (fp_line (start -9.0 15.7) (end 9.0 15.7) (layer F.Fab) (width 0.127))
  (fp_line (start 9.0 15.7) (end 9.0 -15.7) (layer F.Fab) (width 0.127))
  (fp_line (start 9.0 -15.7) (end -9.0 -15.7) (layer F.Fab) (width 0.127))
  (fp_line (start -9.0 -15.7) (end -9.0 15.7) (layer F.Fab) (width 0.127))
  (fp_line (start -9.75 15.95) (end 9.75 15.95) (layer F.CrtYd) (width 0.05))
  (fp_line (start 9.75 15.95) (end 9.75 -15.95) (layer F.CrtYd) (width 0.05))
  (fp_line (start 9.75 -15.95) (end -9.75 -15.95) (layer F.CrtYd) (width 0.05))
  (fp_line (start -9.75 -15.95) (end -9.75 15.95) (layer F.CrtYd) (width 0.05))
  (fp_circle (center -10.16 -8.89) (end -10.06 -8.89) (layer F.SilkS) (width 0.2))
  (zone (net 0) (net_name "") (layer F.Cu) (hatch full 0.508)
    (connect_pads (clearance 0))
    (min_thickness 0.01)
    (keepout (tracks not_allowed) (vias not_allowed) (pads not_allowed ) (copperpour not_allowed) (footprints allowed))
    (fill (thermal_gap 0.508) (thermal_bridge_width 0.508))
    (polygon
      (pts
        (xy -9.0 -15.7)
        (xy 9.0 -15.7)
        (xy 9.0 -9.48)
        (xy -9.0 -9.48)
      )
    )
  )
  (zone (net 0) (net_name "") (layers *.Cu) (hatch full 0.508)
    (connect_pads (clearance 0))
    (min_thickness 0.01)
    (keepout (tracks allowed) (vias not_allowed) (pads allowed ) (copperpour allowed) (footprints allowed))
    (fill (thermal_gap 0.508) (thermal_bridge_width 0.508))
    (polygon
      (pts
        (xy -9.0 -15.7)
        (xy 9.0 -15.7)
        (xy 9.0 -9.48)
        (xy -9.0 -9.48)
      )
    )
  )
)